#*************************************
# x3 List of builtin and parameter 
#-----------------------------------------
# Creation  by T.TORRET ST/HPC/STS (2006/Dec/08)
#     v1.0   
#*************************************
TARGET=x3
MADE_BY_RTL

#---------  
__builtin_x3_cancelg_r_g
INSTRUCTION_CANCELG
BUILD_ONLY
paramOut void
paramIn int
end
#---------  
__builtin_x3_cancelg_i8_i2_g
INSTRUCTION_CANCELG
BUILD_ONLY
immediate
paramOut void
ImmedparamIn unsigned short
---mask=0x3
ImmedparamIn unsigned short
---mask=0xff
end
#---------  
__builtin_x3_cancell_r_g
INSTRUCTION_CANCELL
BUILD_ONLY
paramOut void
paramIn int
end
#---------  
__builtin_x3_cancell_i8_i2_g
INSTRUCTION_CANCELL
BUILD_ONLY
immediate
paramOut void
ImmedparamIn unsigned short
---mask=0x3
ImmedparamIn unsigned short
---mask=0xff
end
#---------  
__builtin_x3_clrcc
INSTRUCTION_CLRCC
BUILD_ONLY
paramOut void
end
#---------  
__builtin_x3_clrcca
INSTRUCTION_CLRCCA
BUILD_ONLY
paramOut void
end
#---------  
__builtin_x3_clrcc1
INSTRUCTION_CLRCC1
BUILD_ONLY
paramOut void
end
#---------  
__builtin_x3_clric
INSTRUCTION_CLRIC
BUILD_ONLY
immediate
paramOut void
ImmedparamIn unsigned int
---mask=0x1f
paramIn int
end
#---------  
__builtin_x3_clrie
INSTRUCTION_CLRIE
BUILD_ONLY
paramOut void
paramIn int
end
#---------  
__builtin_x3_dflush
INSTRUCTION_DFLUSH
BUILD_ONLY
paramOut void
paramIn int
end
#---------  
__builtin_x3_dflushw
INSTRUCTION_DFLUSHW
BUILD_ONLY
paramOut void
end
#---------  
__builtin_x3_dinval
INSTRUCTION_DINVAL
BUILD_ONLY
paramOut void
paramIn int
end
#---------  
__builtin_x3_dlock
INSTRUCTION_DLOCK
BUILD_ONLY
paramOut void
paramIn int
end
#---------  
__builtin_x3_dstata
INSTRUCTION_DSTATA
BUILD_ONLY
paramOut void
paramIn int
end
#---------  
__builtin_x3_dstatwi
INSTRUCTION_DSTATWI
BUILD_ONLY
paramOut void
paramIn int
end
#---------  
__builtin_x3_dtouch
INSTRUCTION_DTOUCH
BUILD_ONLY
paramOut void
paramIn int
end
#---------  
__builtin_x3_fork_i3_g
---addname=_0
INSTRUCTION_FORK0
BUILD_ONLY
immediate
paramOut void
ImmedparamIn unsigned short
---force=0x0
paramIn int
paramIn int
ImmedparamIn unsigned short
---mask=0x1
end
#---------  
__builtin_x3_fork_i3_g
---addname=_1
INSTRUCTION_FORK1
BUILD_ONLY
immediate
paramOut void
ImmedparamIn unsigned short
---force=0x1
paramIn int
paramIn int
ImmedparamIn unsigned short
---mask=0x1
end
#---------  
__builtin_x3_fork_i3_g
---addname=_2
INSTRUCTION_FORK2
BUILD_ONLY
immediate
paramOut void
ImmedparamIn unsigned short
---force=0x2
paramIn int
paramIn int
ImmedparamIn unsigned short
---mask=0x1
end
#---------  
__builtin_x3_fork_i3_g
---addname=_3
INSTRUCTION_FORK3
BUILD_ONLY
immediate
paramOut void
ImmedparamIn unsigned short
---force=0x3
paramIn int
paramIn int
ImmedparamIn unsigned short
---mask=0x1
end
#---------  
__builtin_x3_fork_g
INSTRUCTION_FORK
BUILD_ONLY
immediate
paramOut void
paramIn int
paramIn int
ImmedparamIn unsigned short
---mask=0x1
end
#---------  
__builtin_x3_movee2r
INSTRUCTION_MOVEE2R
BUILD_ONLY
immediate
paramOut int
ImmedparamIn unsigned int
---mask=0x1f
end
#---------  
__builtin_x3_moveic2ri
INSTRUCTION_MOVEIC2RI
BUILD_ONLY
paramOut int
paramIn  int
end
#---------  
__builtin_x3_moveic2r
INSTRUCTION_MOVEIC2R
BUILD_ONLY
immediate
paramOut int
ImmedparamIn unsigned int
---mask=0x1f
end
#---------  
__builtin_x3_moveie2r
INSTRUCTION_MOVEIE2R
BUILD_ONLY
paramOut int
end
#---------  
__builtin_x3_mover2e
INSTRUCTION_MOVER2E
BUILD_ONLY
immediate
paramOut void
ImmedparamIn unsigned int
---mask=0x1f
paramIn  int
end
#---------  
__builtin_x3_mover2ici
INSTRUCTION_MOVER2ICI
BUILD_ONLY
paramOut void
paramIn  int
paramIn  int
end
#---------  
__builtin_x3_mover2ic
INSTRUCTION_MOVER2IC
BUILD_ONLY
immediate
paramOut void
ImmedparamIn unsigned int
---mask=0x1f
paramIn  int
end
#---------  
__builtin_x3_mover2ie
INSTRUCTION_MOVER2IE
BUILD_ONLY
paramOut void
paramIn  int
end
#---------  
__builtin_x3_notifyg_r_g
INSTRUCTION_NOTIFYG
BUILD_ONLY
paramOut void
paramIn  int
end
#---------  
__builtin_x3_notifyg_i8_i2_g
INSTRUCTION_NOTIFYG
BUILD_ONLY
immediate
paramOut void
ImmedparamIn unsigned short
---mask=0x3
ImmedparamIn unsigned short
---mask=0xff
end
#---------  
__builtin_x3_notifyla_r_g
INSTRUCTION_NOTIFYLA
BUILD_ONLY
paramOut void
paramIn  int
end
#---------  
__builtin_x3_notifyla_i8_i2_g
INSTRUCTION_NOTIFYLA
BUILD_ONLY
immediate
paramOut void
ImmedparamIn unsigned short
---mask=0x3
ImmedparamIn unsigned short
---mask=0xff
end
#---------  
__builtin_x3_notifyl_r_i3_g
---addname=_0
INSTRUCTION_NOTIFYL0
BUILD_ONLY
immediate
paramOut void
ImmedparamIn unsigned short
---force=0x0
paramIn  int
end
#---------  
__builtin_x3_notifyl_r_i3_g
---addname=_1
INSTRUCTION_NOTIFYL1
BUILD_ONLY
immediate
paramOut void
ImmedparamIn unsigned short
---force=0x1
paramIn  int
end
#---------  
__builtin_x3_notifyl_r_i3_g
---addname=_2
INSTRUCTION_NOTIFYL2
BUILD_ONLY
immediate
paramOut void
ImmedparamIn unsigned short
---force=0x2
paramIn  int
end
#---------  
__builtin_x3_notifyl_r_i3_g
---addname=_3
INSTRUCTION_NOTIFYL3
BUILD_ONLY
immediate
paramOut void
ImmedparamIn unsigned short
---force=0x3
paramIn  int
end
#---------  
__builtin_x3_notifyl_i8_i2_i3_g
---addname=_0
INSTRUCTION_NOTIFYL0
BUILD_ONLY
immediate
paramOut void
ImmedparamIn unsigned short
---force=0x0
ImmedparamIn unsigned short
---mask=0x3
ImmedparamIn unsigned short
---mask=0xff
end
#---------  
__builtin_x3_notifyl_i8_i2_i3_g
---addname=_1
INSTRUCTION_NOTIFYL1
BUILD_ONLY
immediate
paramOut void
ImmedparamIn unsigned short
---force=0x1
ImmedparamIn unsigned short
---mask=0x3
ImmedparamIn unsigned short
---mask=0xff
end
#---------  
__builtin_x3_notifyl_i8_i2_i3_g
---addname=_2
INSTRUCTION_NOTIFYL2
BUILD_ONLY
immediate
paramOut void
ImmedparamIn unsigned short
---force=0x2
ImmedparamIn unsigned short
---mask=0x3
ImmedparamIn unsigned short
---mask=0xff
end
#---------  
__builtin_x3_notifyl_i8_i2_i3_g
---addname=_3
INSTRUCTION_NOTIFYL3
BUILD_ONLY
immediate
paramOut void
ImmedparamIn unsigned short
---force=0x3
ImmedparamIn unsigned short
---mask=0x3
ImmedparamIn unsigned short
---mask=0xff
end
#---------  
__builtin_x3_pflushw
INSTRUCTION_PFLUSHW
BUILD_ONLY
paramOut void
end
#---------  
__builtin_x3_pinvalr
INSTRUCTION_PINVALR
BUILD_ONLY
paramOut void
paramIn int
end
#---------  
__builtin_x3_pinval
INSTRUCTION_PINVAL
BUILD_ONLY
paramOut void
paramIn int
end
#---------  
__builtin_x3_plockr
INSTRUCTION_PLOCKR
BUILD_ONLY
paramOut void
paramIn int
end
#---------  
__builtin_x3_plock
INSTRUCTION_PLOCK
BUILD_ONLY
paramOut void
paramIn int
end
#---------  
__builtin_x3_pstata
INSTRUCTION_PSTATA
BUILD_ONLY
paramOut void
paramIn int
end
#---------  
__builtin_x3_pstatwi
INSTRUCTION_PSTATWI
BUILD_ONLY
paramOut void
paramIn int
end
#---------  
__builtin_x3_ptouch
INSTRUCTION_PTOUCH
BUILD_ONLY
paramOut void
paramIn int
end
#---------  
__builtin_x3_setic
INSTRUCTION_SETIC
BUILD_ONLY
immediate
paramOut void
ImmedparamIn unsigned int
---mask=0x1f
paramIn int
end
#---------  
__builtin_x3_setie
INSTRUCTION_SETIE
BUILD_ONLY
paramOut void
paramIn int
end
#---------  
__builtin_x3_startcc
INSTRUCTION_STARTCC
BUILD_ONLY
paramOut void
end
#---------  
__builtin_x3_stopcc
INSTRUCTION_STOPCC
BUILD_ONLY
paramOut void
end
#---------  
__builtin_x3_startcc1
INSTRUCTION_STARTCC1
BUILD_ONLY
paramOut void
end
#---------  
__builtin_x3_stopcc1
INSTRUCTION_STOPCC1
BUILD_ONLY
paramOut void
end
#---------  
__builtin_x3_startcca
INSTRUCTION_STARTCCA
BUILD_ONLY
paramOut void
end
#---------  
__builtin_x3_stopcca
INSTRUCTION_STOPCCA
BUILD_ONLY
paramOut void
end
#---------  
__builtin_x3_terminate_i3
---addname=_0
INSTRUCTION_TERMINATE0
BUILD_ONLY
immediate
paramOut void
ImmedparamIn unsigned short
---force=0x0
end
#---------  
__builtin_x3_terminate_i3
---addname=_1
INSTRUCTION_TERMINATE1
BUILD_ONLY
immediate
paramOut void
ImmedparamIn unsigned short
---force=0x1
end
#---------  
__builtin_x3_terminate_i3
---addname=_2
INSTRUCTION_TERMINATE2
BUILD_ONLY
immediate
paramOut void
ImmedparamIn unsigned short
---force=0x2
end
#---------  
__builtin_x3_terminate_i3
---addname=_3
INSTRUCTION_TERMINATE3
BUILD_ONLY
immediate
paramOut void
ImmedparamIn unsigned short
---force=0x3
end
#---------  
__builtin_x3_terminate
INSTRUCTION_TERMINATE
BUILD_ONLY
paramOut void
end
#---------  
__builtin_x3_waitg_r_g
INSTRUCTION_WAITG
BUILD_ONLY
paramOut void
paramIn  int
end
#---------  
__builtin_x3_waitg_i8_i2_g
INSTRUCTION_WAITG
BUILD_ONLY
immediate
paramOut void
ImmedparamIn unsigned short
---mask=0x3
ImmedparamIn unsigned short
---mask=0xff
end
#---------  
__builtin_x3_waitl_r_g
INSTRUCTION_WAITL
BUILD_ONLY
paramOut void
paramIn  int
end
#---------  
__builtin_x3_waitl_i8_i2_g
INSTRUCTION_WAITL
BUILD_ONLY
immediate
paramOut void
ImmedparamIn unsigned short
---mask=0x3
ImmedparamIn unsigned short
---mask=0xff
end
#---------  
__builtin_x3_waitnbg_r_g
INSTRUCTION_WAITNBG
BUILD_ONLY
paramOut void
paramIn  int
end
#---------  
__builtin_x3_waitnbg_i8_i2_g
INSTRUCTION_WAITNBG
BUILD_ONLY
immediate
paramOut void
ImmedparamIn unsigned short
---mask=0x3
ImmedparamIn unsigned short
---mask=0xff
end
#---------  
__builtin_x3_waitnbl_r_g
INSTRUCTION_WAITNBL
BUILD_ONLY
paramOut void
paramIn  int
end
#---------  
__builtin_x3_waitnbl_i8_i2_g
INSTRUCTION_WAITNBL
BUILD_ONLY
immediate
paramOut void
ImmedparamIn unsigned short
---mask=0x3
ImmedparamIn unsigned short
---mask=0xff
end
#---------  
__builtin_x3_waitnb
INSTRUCTION_WAITNB
BUILD_ONLY
paramOut void
paramIn  int
paramIn  int
end
#---------  
__builtin_x3_wait
INSTRUCTION_WAIT
BUILD_ONLY
paramOut void
paramIn  int
paramIn  int
end
# ************************************************
# x3 List of MULTIPLIER INSTRCUTION
__builtin_x3_mp
INSTRUCTION_MP
paramOut int
paramIn int
paramIn int
end
#---------  
__builtin_x3_mpn
INSTRUCTION_MPN
paramOut int
paramIn int
paramIn int
end
#---------  
__builtin_x3_mpssll
INSTRUCTION_MPSSLL
paramOut int
paramIn int
paramIn int
end
#---------  
__builtin_x3_mpsslh
INSTRUCTION_MPSSLH
paramOut int
paramIn int
paramIn int
end
#---------  
__builtin_x3_mpsshl
INSTRUCTION_MPSSHL
paramOut int
paramIn int
paramIn int
end
#---------  
__builtin_x3_mpsshh
INSTRUCTION_MPSSHH
paramOut int
paramIn int
paramIn int
end
#---------  
__builtin_x3_mpuull
INSTRUCTION_MPUULL
paramOut int
paramIn unsigned int
paramIn unsigned int
end
#---------  
__builtin_x3_mpuulh
INSTRUCTION_MPUULH
paramOut int
paramIn unsigned int
paramIn unsigned int
end
#---------  
__builtin_x3_mpuuhl
INSTRUCTION_MPUUHL
paramOut int
paramIn unsigned int
paramIn unsigned int
end
#---------  
__builtin_x3_mpuuhh
INSTRUCTION_MPUUHH
paramOut int
paramIn unsigned int
paramIn unsigned int
end
#---------  
__builtin_x3_mpusll
INSTRUCTION_MPUSLL
paramOut int
paramIn unsigned int
paramIn int
end
#---------  
__builtin_x3_mpuslh
INSTRUCTION_MPUSLH
paramOut int
paramIn unsigned int
paramIn int
end
#---------  
__builtin_x3_mpushl
INSTRUCTION_MPUSHL
paramOut int
paramIn unsigned int
paramIn int
end
#---------  
__builtin_x3_mpushh
INSTRUCTION_MPUSHH
paramOut int
paramIn unsigned int
paramIn int
end
#---------  
__builtin_x3_mpsull
INSTRUCTION_MPSULL
paramOut int
paramIn int
paramIn unsigned int
end
#---------  
__builtin_x3_mpsulh
INSTRUCTION_MPSULH
paramOut int
paramIn int
paramIn unsigned int
end
#---------  
__builtin_x3_mpsuhl
INSTRUCTION_MPSUHL
paramOut int
paramIn int
paramIn unsigned int
end
#---------  
__builtin_x3_mpsuhh
INSTRUCTION_MPSUHH
paramOut int
paramIn int
paramIn unsigned int
end
#---------  
__builtin_x3_mpnssll
INSTRUCTION_MPNSSLL
paramOut int
paramIn int
paramIn int
end
#---------  
__builtin_x3_mpnsslh
INSTRUCTION_MPNSSLH
paramOut int
paramIn int
paramIn int
end
#---------  
__builtin_x3_mpnsshl
INSTRUCTION_MPNSSHL
paramOut int
paramIn int
paramIn int
end
#---------  
__builtin_x3_mpnsshh
INSTRUCTION_MPNSSHH
paramOut int
paramIn int
paramIn int
end
#---------  
__builtin_x3_mpnuull
INSTRUCTION_MPNUULL
paramOut int
paramIn unsigned int
paramIn unsigned int
end
#---------  
__builtin_x3_mpnuulh
INSTRUCTION_MPNUULH
paramOut int
paramIn unsigned int
paramIn unsigned int
end
#---------  
__builtin_x3_mpnuuhl
INSTRUCTION_MPNUUHL
paramOut int
paramIn unsigned int
paramIn unsigned int
end
#---------  
__builtin_x3_mpnuuhh
INSTRUCTION_MPNUUHH
paramOut int
paramIn unsigned int
paramIn unsigned int
end
#---------  
__builtin_x3_mpnusll
INSTRUCTION_MPNUSLL
paramOut int
paramIn unsigned int
paramIn int
end
#---------  
__builtin_x3_mpnuslh
INSTRUCTION_MPNUSLH
paramOut int
paramIn unsigned int
paramIn int
end
#---------  
__builtin_x3_mpnushl
INSTRUCTION_MPNUSHL
paramOut int
paramIn unsigned int
paramIn int
end
#---------  
__builtin_x3_mpnushh
INSTRUCTION_MPNUSHH
paramOut int
paramIn unsigned int
paramIn int
end
#---------  
__builtin_x3_mpnsull
INSTRUCTION_MPNSULL
paramOut int
paramIn int
paramIn unsigned int
end
#---------  
__builtin_x3_mpnsulh
INSTRUCTION_MPNSULH
paramOut int
paramIn int
paramIn unsigned int
end
#---------  
__builtin_x3_mpnsuhl
INSTRUCTION_MPNSUHL
paramOut int
paramIn int
paramIn unsigned int
end
#---------  
__builtin_x3_mpnsuhh
INSTRUCTION_MPNSUHH
paramOut int
paramIn int
paramIn unsigned int
end
